{
    "id": "org.kde.kgeography",
    "branch": "master",
    "runtime": "org.kde.Platform",
    "runtime-version": "5.14",
    "sdk": "org.kde.Sdk",
    "command": "kgeography",
    "rename-icon": "kgeography",
    "tags": ["nightly"],
    "desktop-file-name-suffix": " (Nightly)",
    "finish-args": [
        "--share=ipc",
        "--socket=x11",
        "--socket=wayland",
        "--device=dri"
    ],
    "modules": [
        {
            "name": "kgeography",
            "buildsystem": "cmake-ninja",
            "sources": [ { "type": "git", "url": "git://anongit.kde.org/kgeography.git" } ]
        }
    ]
}
